ANOVA
…
Data %>% drop_na()

## # A tibble: 120 x 13
##    crop     year   rep   trt  plot herbicide  species injury weight
##    <chr>   <int> <int> <int> <int> <chr>      <chr>    <int>  <dbl>
##  1 soybean  2013     1     1   104 Nontreated oat          0   3.86
##  2 soybean  2013     2     1   206 Nontreated oat          0   2.30
##  3 soybean  2013     3     1   301 Nontreated oat         10   3.06
##  4 soybean  2013     4     1   402 Nontreated oat          0   4.24
##  5 soybean  2013     1     2   113 Spartan    oat          0   3.70
##  6 soybean  2013     2     2   214 Spartan    oat          0   3.82
##  7 soybean  2013     3     2   304 Spartan    oat          0   3.39
##  8 soybean  2013     4     2   407 Spartan    oat          0   2.25
##  9 soybean  2013     1     3   115 Valor      oat          0   3.20
## 10 soybean  2013     2     3   209 Valor      oat          0   2.69
## # ... with 110 more rows, and 4 more variables: `biomass red` <dbl>,
## #   ndvi <dbl>, cover <dbl>, Cover <dbl>
…
